{"componentChunkName":"component---packages-core-src-templates-collection-tag-js","path":"/tag/culture/page/2/","result":{"data":{"collectionInfo":{"id":"65cfa482-3470-5304-accb-5d111ed624ec","name":"#culture","slug":"/tag/culture/"},"posts":{"nodes":[{"__typename":"MdxArticleProxy","id":"cd29a863-6dc8-5740-8b73-558918ab5548","title":"20 Creative Pasta Recipes You'll Probably Want To Whip Up ASAP","slug":"/20-creative-pasta-recipes-you'll-probably-want-to-whip-up-asap/","link":null,"excerpt":"Primo in altis pelle alumnae Lorem markdownum obvius in seque opus, est bicorni forte; laeva…","timeToRead":1,"featured":true,"thumbnailText":null,"date":"March 11, 2019","category":{"__typename":"CategoriesJson","id":"38cd738e-77f2-5da8-b099-16ea365fda49","name":"Art & Culture","slug":"/category/art-and-culture/","color":null,"icon":"/static/49d5cf394fc18ca373866e46b1fd80ef/art-icon.svg"},"author":{"__typename":"AuthorsJson","id":"98050b24-7603-5db1-bd30-19368b98c2f2","name":"Sarah Doe","slug":"/author/sarah-doe/","title":"Internet Marketer","description":"Sed commodo, est quis maximus fermentum, massa ipsum euismod neque, in varius risus tellus quis lacus. Sed ac bibendum odio.","skills":["Marketing","Google Adwords","Story Telling"],"social":[{"name":"Instagram","url":"https://instagram.com/instagram"},{"name":"Twitter","url":"https://twitter.com/twitter"},{"name":"Website","url":"https://example.com"}],"thumbnail":{"__typename":"ImageSharp","regular":{"width":150,"height":150,"src":"/static/87de5bfbd74cc446592cf783a2ed157f/97df7/sarah-doe.png","srcSet":"/static/87de5bfbd74cc446592cf783a2ed157f/97df7/sarah-doe.png 1x,\n/static/87de5bfbd74cc446592cf783a2ed157f/81b80/sarah-doe.png 1.5x,\n/static/87de5bfbd74cc446592cf783a2ed157f/bb938/sarah-doe.png 2x"}}},"thumbnail":{"__typename":"ImageSharp","vertical":{"src":"/static/a381cbe123484c239b97a005d5ce4a00/8f7be/image.jpg","srcSet":"/static/a381cbe123484c239b97a005d5ce4a00/8f7be/image.jpg 1x,\n/static/a381cbe123484c239b97a005d5ce4a00/1af80/image.jpg 1.5x,\n/static/a381cbe123484c239b97a005d5ce4a00/1acf6/image.jpg 2x","srcWebp":"/static/a381cbe123484c239b97a005d5ce4a00/03323/image.webp","srcSetWebp":"/static/a381cbe123484c239b97a005d5ce4a00/03323/image.webp 1x,\n/static/a381cbe123484c239b97a005d5ce4a00/c8e9c/image.webp 1.5x,\n/static/a381cbe123484c239b97a005d5ce4a00/e7f4c/image.webp 2x","width":380,"height":290},"hero":{"src":"/static/a381cbe123484c239b97a005d5ce4a00/a8483/image.jpg","srcSet":"/static/a381cbe123484c239b97a005d5ce4a00/a8483/image.jpg 1x","srcWebp":"/static/a381cbe123484c239b97a005d5ce4a00/7330c/image.webp","srcSetWebp":"/static/a381cbe123484c239b97a005d5ce4a00/7330c/image.webp 1x","width":1600,"height":650}}}],"pageInfo":{"pageCount":2,"hasPreviousPage":true,"hasNextPage":false,"currentPage":2},"totalCount":7}},"pageContext":{"slug":"/tag/culture/","limit":6,"skip":6,"collectionType":"tags","basePath":"/","services":{"algolia":false,"mailchimp":false,"disqus":false}}}}